FW/CPLDCodes/test.vcd
$date
	Fri Apr  2 15:41:25 2021
$end
$version
	Icarus Verilog
$end
$timescale
	1ns
$end
$scope module testbench $end
$var wire 1 ! busy $end
$var wire 1 " spi_mosi $end
$var wire 1 # spi_miso $end
$var wire 1 $ spi_clk $end
$var wire 1 % rd $end
$var wire 1 & cs $end
$var wire 1 ' conv2 $end
$var reg 1 ( clk $end
$var reg 2 ) cnter [1:0] $end
$var reg 1 * conv $end
$var reg 12 + datas [11:0] $end
$var reg 1 , eoc_bar $end
$scope module DUT $end
$var wire 1 ' ad_conv_bar $end
$var wire 1 ! busy $end
$var wire 1 ( clkin $end
$var wire 12 - db [11:0] $end
$var wire 1 * dsp_conv_bar $end
$var wire 1 , eoc_bar $end
$var reg 3 . cnter [2:0] $end
$var reg 1 & cs_bar $end
$var reg 1 / db_rdy $end
$var reg 12 0 db_reg [11:0] $end
$var reg 1 # miso $end
$var reg 1 " mosi $end
$var reg 1 % rd_bar $end
$var reg 1 $ sclk $end
$var reg 5 1 sel [4:0] $end
$upscope $end
$upscope $end
$enddefinitions $end
#0
$dumpvars
bx 1
bx 0
x/
bx .
b10111010010 -
x,
b10111010010 +
1*
b0 )
0(
1'
x&
x%
x$
x#
x"
z!
$end
#100
b0 1
0"
0$
1(
#200
0(
#300
0%
0&
1(
0,
#400
0(
#500
1(
#600
0(
1,
#700
1(
#800
0(
#900
1(
0,
#1000
0(
#1100
1(
#1200
0(
1,
#1300
1(
#1400
0(
#1500
1(
0,
#1600
0(
#1700
1(
#1800
0(
1,
#1900
1(
#2000
0(
#2100
1(
0,
#2200
0(
#2300
1(
#2400
0(
1,
#2500
1(
#2600
0(
#2700
1(
0,
#2800
0(
#2900
1(
#3000
b0 .
0(
1,
0'
0*
#3100
1(
#3200
0(
1'
1*
#3300
b1 .
1(
0,
#3400
0(
#3500
b10 .
1(
#3600
0(
1,
#3700
1(
#3800
0(
#3900
b11 .
1(
0,
#4000
0(
#4100
1/
b100 .
1(
#4200
0(
1,
#4300
b10111010010 0
b1 1
1$
1(
#4400
0(
#4500
b101 .
1"
0$
1(
0,
#4600
0(
#4700
b110 .
b10 1
1$
1(
#4800
0(
1,
#4900
0"
0$
1(
#5000
0(
#5100
b111 .
b11 1
1$
1(
0,
#5200
0(
#5300
1%
1&
b0 .
0$
1(
#5400
0(
1,
#5500
b100 1
1$
1(
#5600
0(
#5700
b1 .
0%
0&
1"
0$
1(
0,
#5800
0(
#5900
b10 .
b101 1
1$
1(
#6000
0(
1,
#6100
0"
0$
1(
#6200
b0 .
0(
0'
0*
#6300
b1 .
b110 1
1$
1(
0,
#6400
0(
1'
1*
#6500
b10 .
1"
0$
1(
#6600
0(
1,
#6700
b111 1
1$
1(
#6800
0(
#6900
b11 .
0$
1(
0,
#7000
0(
#7100
b100 .
b1000 1
1$
1(
#7200
0(
1,
#7300
0$
1(
#7400
0(
#7500
b101 .
b1001 1
1$
1(
0,
#7600
0(
#7700
b110 .
0"
0$
1(
#7800
0(
1,
#7900
b1010 1
1$
1(
#8000
0(
#8100
b111 .
1"
0$
1(
0,
#8200
0(
#8300
1%
1&
b0 .
b1011 1
1$
1(
#8400
0(
1,
#8500
0"
0$
1(
#8600
0(
#8700
b1 .
0%
0&
b1100 1
1$
1(
0,
#8800
0(
#8900
b10 .
x"
0$
1(
#9000
0(
1,
#9100
b1101 1
1$
1(
#9200
0(
#9300
b11 .
0$
1(
0,
#9400
b0 .
0(
0'
0*
#9500
b1 .
b1110 1
1$
1(
#9600
0(
1'
1*
1,
#9700
0$
1(
#9800
0(
#9900
b10 .
b1111 1
1$
1(
0,
#10000
0(
#10100
b11 .
0$
1(
#10200
0(
1,
#10300
b10000 1
1$
1(
#10400
0(
#10500
b100 .
0$
1(
0,
#10600
0(
#10700
b101 .
b10001 1
1$
1(
#10800
0(
1,
#10900
0$
1(
#11000
0(
#11100
b110 .
b10010 1
1$
1(
0,
#11200
0(
#11300
b111 .
0$
1(
#11400
0(
1,
#11500
1%
1&
b10011 1
1$
1(
#11600
0(
#11700
b0 .
1%
1&
0$
1(
0,
#11800
0(
#11900
b1 .
0%
0&
b10100 1
1$
1(
#12000
0(
1,
#12100
0$
1(
#12200
0(
#12300
b10 .
b10101 1
1$
1(
0,
#12400
0(
#12500
b11 .
0$
1(
#12600
b0 .
0(
1,
0'
0*
#12700
b10110 1
1$
1(
#12800
0(
1'
1*
#12900
b1 .
0$
1(
0,
#13000
0(
#13100
b10 .
b10111 1
1$
1(
#13200
0(
1,
#13300
0$
1(
#13400
0(
#13500
b11 .
b11000 1
1$
1(
0,
#13600
0(
#13700
b100 .
0$
1(
#13800
0(
1,
#13900
b11001 1
1$
1(
#14000
0(
#14100
b101 .
0$
1(
0,
#14200
0(
#14300
b110 .
b11010 1
1$
1(
#14400
0(
1,
#14500
0$
1(
#14600
0(
#14700
b111 .
b11011 1
1$
1(
0,
#14800
0(
#14900
1%
1&
b0 .
0$
1(
#15000
0(
1,
#15100
b11100 1
1$
1(
#15200
0(
#15300
b1 .
0%
0&
0$
1(
0,
#15400
0(
#15500
b10 .
b11101 1
1$
1(
#15600
0(
1,
#15700
0$
1(
#15800
b0 .
0(
0'
0*
#15900
b1 .
b11110 1
1$
1(
0,
#16000
0(
1'
1*
#16100
b10 .
0$
1(
#16200
0(
1,
#16300
b11111 1
1$
1(
#16400
0(
#16500
b11 .
0$
1(
0,
#16600
0(
#16700
b100 .
b0 1
1$
1(
#16800
0(
1,
#16900
0"
0$
1(
#17000
0(
#17100
b101 .
b1 1
1$
1(
0,
#17200
0(
#17300
b110 .
1"
0$
1(
#17400
0(
1,
#17500
b10 1
1$
1(
#17600
0(
#17700
b111 .
0"
0$
1(
0,
#17800
0(
#17900
1%
1&
b0 .
b11 1
1$
1(
#18000
0(
1,
#18100
0$
1(
#18200
0(
#18300
b1 .
0%
0&
b100 1
1$
1(
0,
#18400
0(
#18500
b10 .
1"
0$
1(
#18600
0(
1,
#18700
b101 1
1$
1(
#18800
0(
#18900
b11 .
0"
0$
1(
0,
#19000
b0 .
0(
0'
0*
#19100
b1 .
b110 1
1$
1(
#19200
0(
1'
1*
1,
#19300
1"
0$
1(
#19400
0(
#19500
b10 .
b111 1
1$
1(
0,
#19600
0(
#19700
b11 .
0$
1(
#19800
0(
1,
#19900
b1000 1
1$
1(
#20000
0(
#20100
b100 .
0$
1(
0,
#20200
0(
#20300
b101 .
b1001 1
1$
1(
#20400
0(
1,
#20500
0"
0$
1(
#20600
0(
#20700
b110 .
b1010 1
1$
1(
0,
#20800
0(
#20900
b111 .
1"
0$
1(
#21000
0(
1,
#21100
1%
1&
b1011 1
1$
1(
#21200
0(
#21300
b0 .
1%
1&
0"
0$
1(
0,
#21400
0(
#21500
b1 .
0%
0&
b1100 1
1$
1(
#21600
0(
1,
#21700
x"
0$
1(
#21800
0(
#21900
b10 .
b1101 1
1$
1(
0,
#22000
0(
#22100
b11 .
0$
1(
#22200
b0 .
0(
1,
0'
0*
#22300
b1110 1
1$
1(
#22400
0(
1'
1*
#22500
b1 .
0$
1(
0,
#22600
0(
#22700
b10 .
b1111 1
1$
1(
#22800
0(
1,
#22900
0$
1(
#23000
0(
#23100
b11 .
b10000 1
1$
1(
0,
#23200
0(
#23300
b100 .
0$
1(
#23400
0(
1,
#23500
b10001 1
1$
1(
#23600
0(
#23700
b101 .
0$
1(
0,
#23800
0(
#23900
b110 .
b10010 1
1$
1(
#24000
0(
1,
#24100
0$
1(
#24200
0(
#24300
b111 .
b10011 1
1$
1(
0,
#24400
0(
#24500
1%
1&
b0 .
0$
1(
#24600
0(
1,
#24700
b10100 1
1$
1(
#24800
0(
#24900
b1 .
0%
0&
0$
1(
0,
#25000
0(
#25100
b10 .
b10101 1
1$
1(
#25200
0(
1,
#25300
0$
1(
#25400
b0 .
0(
0'
0*
#25500
b1 .
b10110 1
1$
1(
0,
#25600
0(
1'
1*
#25700
b10 .
0$
1(
#25800
0(
1,
#25900
b10111 1
1$
1(
#26000
0(
#26100
b11 .
0$
1(
0,
#26200
0(
#26300
b100 .
b11000 1
1$
1(
#26400
0(
1,
#26500
0$
1(
#26600
0(
#26700
b101 .
b11001 1
1$
1(
0,
#26800
0(
#26900
b110 .
0$
1(
#27000
0(
1,
#27100
b11010 1
1$
1(
#27200
0(
#27300
b111 .
0$
1(
0,
#27400
0(
#27500
1%
1&
b0 .
b11011 1
1$
1(
#27600
0(
1,
#27700
0$
1(
#27800
0(
#27900
b1 .
0%
0&
b11100 1
1$
1(
0,
#28000
0(
#28100
b10 .
0$
1(
#28200
0(
1,
#28300
b11101 1
1$
1(
#28400
0(
#28500
b11 .
0$
1(
0,
#28600
b0 .
0(
0'
0*
#28700
b1 .
b11110 1
1$
1(
#28800
0(
1'
1*
1,
#28900
0$
1(
#29000
0(
#29100
b10 .
b11111 1
1$
1(
0,
#29200
0(
#29300
b11 .
0$
1(
#29400
0(
1,
#29500
b0 1
1$
1(
#29600
0(
#29700
b100 .
0"
0$
1(
0,
#29800
0(
#29900
b101 .
b1 1
1$
1(
#30000
0(
1,
