FW/CPLD/basicfunctions/simulation/qsim/basicfunctions.msim.vcd
$comment
	File created using the following command:
		vcd file basicfunctions.msim.vcd -direction
$end
$date
	Mon Aug 30 11:49:09 2021
$end
$version
	ModelSim Version 10.5b
$end
$timescale
	1ps
$end

$scope module basicfunctions_vlg_vec_tst $end
$var reg 1 ! CLOCKPIN $end
$var reg 1 " CPLD_EEPROM_MISO $end
$var reg 1 # DSP_EEPROM_CS $end
$var reg 1 $ DSP_EEPROM_MOSI $end
$var reg 1 % DSP_EEPROM_SCK $end
$var wire 1 & CPLD_EEPROM_CS $end
$var wire 1 ' CPLD_EEPROM_MOSI $end
$var wire 1 ( CPLD_EEPROM_SCK $end
$var wire 1 ) DSP_EEPROM_MISO $end
$var wire 1 * DSP_PWR_EN $end
$var wire 1 + DSP_RST $end
$var wire 1 , DSPCLKOUT $end

$scope module i1 $end
$var wire 1 - gnd $end
$var wire 1 . vcc $end
$var wire 1 / unknown $end
$var tri1 1 0 devclrn $end
$var tri1 1 1 devpor $end
$var tri1 1 2 devoe $end
$var wire 1 3 CLOCKPIN~combout $end
$var wire 1 4 inst|LPM_COUNTER_component|auto_generated|counter_cella0~COUT $end
$var wire 1 5 inst|LPM_COUNTER_component|auto_generated|counter_cella0~COUTCOUT1_1 $end
$var wire 1 6 inst|LPM_COUNTER_component|auto_generated|counter_cella1~COUT $end
$var wire 1 7 inst|LPM_COUNTER_component|auto_generated|counter_cella1~COUTCOUT1_1 $end
$var wire 1 8 inst|LPM_COUNTER_component|auto_generated|counter_cella2~COUT $end
$var wire 1 9 inst|LPM_COUNTER_component|auto_generated|counter_cella2~COUTCOUT1_1 $end
$var wire 1 : inst|LPM_COUNTER_component|auto_generated|counter_cella3~COUT $end
$var wire 1 ; inst|LPM_COUNTER_component|auto_generated|counter_cella3~COUTCOUT1_1 $end
$var wire 1 < inst|LPM_COUNTER_component|auto_generated|counter_cella4~COUT $end
$var wire 1 = inst|LPM_COUNTER_component|auto_generated|counter_cella5~COUT $end
$var wire 1 > inst|LPM_COUNTER_component|auto_generated|counter_cella5~COUTCOUT1_1 $end
$var wire 1 ? inst|LPM_COUNTER_component|auto_generated|counter_cella6~COUT $end
$var wire 1 @ inst|LPM_COUNTER_component|auto_generated|counter_cella6~COUTCOUT1_1 $end
$var wire 1 A inst1|LPM_COUNTER_component|auto_generated|counter_cella0~COUT $end
$var wire 1 B inst1|LPM_COUNTER_component|auto_generated|counter_cella0~COUTCOUT1_1 $end
$var wire 1 C inst1|LPM_COUNTER_component|auto_generated|counter_cella1~COUT $end
$var wire 1 D inst1|LPM_COUNTER_component|auto_generated|counter_cella1~COUTCOUT1_1 $end
$var wire 1 E inst1|LPM_COUNTER_component|auto_generated|counter_cella2~COUT $end
$var wire 1 F inst1|LPM_COUNTER_component|auto_generated|counter_cella2~COUTCOUT1_1 $end
$var wire 1 G inst1|LPM_COUNTER_component|auto_generated|counter_cella3~COUT $end
$var wire 1 H inst1|LPM_COUNTER_component|auto_generated|counter_cella3~COUTCOUT1_1 $end
$var wire 1 I inst1|LPM_COUNTER_component|auto_generated|counter_cella4~COUT $end
$var wire 1 J inst1|LPM_COUNTER_component|auto_generated|counter_cella5~COUT $end
$var wire 1 K inst1|LPM_COUNTER_component|auto_generated|counter_cella5~COUTCOUT1_1 $end
$var wire 1 L inst1|LPM_COUNTER_component|auto_generated|counter_cella6~COUT $end
$var wire 1 M inst1|LPM_COUNTER_component|auto_generated|counter_cella6~COUTCOUT1_1 $end
$var wire 1 N inst3|LPM_COUNTER_component|auto_generated|counter_cella0~COUT $end
$var wire 1 O inst3|LPM_COUNTER_component|auto_generated|counter_cella0~COUTCOUT1_1 $end
$var wire 1 P inst3|LPM_COUNTER_component|auto_generated|counter_cella1~COUT $end
$var wire 1 Q inst3|LPM_COUNTER_component|auto_generated|counter_cella1~COUTCOUT1_1 $end
$var wire 1 R inst3|LPM_COUNTER_component|auto_generated|counter_cella2~COUT $end
$var wire 1 S inst3|LPM_COUNTER_component|auto_generated|counter_cella2~COUTCOUT1_1 $end
$var wire 1 T inst3|LPM_COUNTER_component|auto_generated|counter_cella3~COUT $end
$var wire 1 U inst3|LPM_COUNTER_component|auto_generated|counter_cella3~COUTCOUT1_1 $end
$var wire 1 V inst3|LPM_COUNTER_component|auto_generated|counter_cella4~COUT $end
$var wire 1 W inst3|LPM_COUNTER_component|auto_generated|counter_cella5~COUT $end
$var wire 1 X inst3|LPM_COUNTER_component|auto_generated|counter_cella5~COUTCOUT1_1 $end
$var wire 1 Y inst7~0_combout $end
$var wire 1 Z inst3|LPM_COUNTER_component|auto_generated|counter_cella6~COUT $end
$var wire 1 [ inst3|LPM_COUNTER_component|auto_generated|counter_cella6~COUTCOUT1_1 $end
$var wire 1 \ inst9~0_combout $end
$var wire 1 ] DSP_EEPROM_CS~combout $end
$var wire 1 ^ DSP_EEPROM_SCK~combout $end
$var wire 1 _ DSP_EEPROM_MOSI~combout $end
$var wire 1 ` CPLD_EEPROM_MISO~combout $end
$var wire 1 a inst3|LPM_COUNTER_component|auto_generated|safe_q [7] $end
$var wire 1 b inst3|LPM_COUNTER_component|auto_generated|safe_q [6] $end
$var wire 1 c inst3|LPM_COUNTER_component|auto_generated|safe_q [5] $end
$var wire 1 d inst3|LPM_COUNTER_component|auto_generated|safe_q [4] $end
$var wire 1 e inst3|LPM_COUNTER_component|auto_generated|safe_q [3] $end
$var wire 1 f inst3|LPM_COUNTER_component|auto_generated|safe_q [2] $end
$var wire 1 g inst3|LPM_COUNTER_component|auto_generated|safe_q [1] $end
$var wire 1 h inst3|LPM_COUNTER_component|auto_generated|safe_q [0] $end
$var wire 1 i inst1|LPM_COUNTER_component|auto_generated|safe_q [7] $end
$var wire 1 j inst1|LPM_COUNTER_component|auto_generated|safe_q [6] $end
$var wire 1 k inst1|LPM_COUNTER_component|auto_generated|safe_q [5] $end
$var wire 1 l inst1|LPM_COUNTER_component|auto_generated|safe_q [4] $end
$var wire 1 m inst1|LPM_COUNTER_component|auto_generated|safe_q [3] $end
$var wire 1 n inst1|LPM_COUNTER_component|auto_generated|safe_q [2] $end
$var wire 1 o inst1|LPM_COUNTER_component|auto_generated|safe_q [1] $end
$var wire 1 p inst1|LPM_COUNTER_component|auto_generated|safe_q [0] $end
$var wire 1 q inst|LPM_COUNTER_component|auto_generated|safe_q [7] $end
$var wire 1 r inst|LPM_COUNTER_component|auto_generated|safe_q [6] $end
$var wire 1 s inst|LPM_COUNTER_component|auto_generated|safe_q [5] $end
$var wire 1 t inst|LPM_COUNTER_component|auto_generated|safe_q [4] $end
$var wire 1 u inst|LPM_COUNTER_component|auto_generated|safe_q [3] $end
$var wire 1 v inst|LPM_COUNTER_component|auto_generated|safe_q [2] $end
$var wire 1 w inst|LPM_COUNTER_component|auto_generated|safe_q [1] $end
$var wire 1 x inst|LPM_COUNTER_component|auto_generated|safe_q [0] $end
$upscope $end
$upscope $end
$enddefinitions $end
#0
$dumpvars
0!
x"
x#
x$
x%
x&
x'
x(
x)
x*
x+
0,
0-
1.
x/
10
11
12
03
04
05
16
17
08
09
1:
1;
0<
1=
1>
0?
0@
0A
0B
1C
1D
0E
0F
1G
1H
0I
1J
1K
0L
0M
0N
0O
1P
1Q
0R
0S
1T
1U
0V
1W
1X
xY
0Z
0[
x\
x]
x^
x_
x`
0h
0g
0f
0e
0d
0c
0b
0a
0p
0o
0n
0m
0l
0k
0j
0i
0x
0w
0v
0u
0t
0s
0r
0q
$end
#24800
1!
13
1,
1x
15
14
#49600
0!
03
0,
#74400
1!
13
1,
1w
0x
07
06
05
04
17
16
#99200
0!
03
0,
#124000
1!
13
1,
1x
15
14
07
06
#148800
0!
03
0,
#173600
1!
13
1,
1v
0w
0x
19
18
17
16
05
04
09
08
#198400
0!
03
0,
#223200
1!
13
1,
1x
15
14
#248000
0!
03
0,
#272800
1!
13
1,
1w
0x
07
06
05
04
19
18
17
16
09
08
#297600
0!
03
0,
#322400
1!
13
1,
1x
15
14
07
06
19
18
#347200
0!
03
0,
#372000
1!
13
1,
1u
0v
0w
0x
0;
0:
09
08
17
16
05
04
1;
1:
#396800
0!
03
0,
#421600
1!
13
1,
1x
15
14
#446400
0!
03
0,
#471200
1!
13
1,
1w
0x
07
06
05
04
17
16
#496000
0!
03
0,
#520800
1!
13
1,
1x
15
14
07
06
#545600
0!
03
0,
#570400
1!
13
1,
1v
0w
0x
19
18
17
16
05
04
0;
0:
09
08
1;
1:
#595200
0!
03
0,
#620000
1!
13
1,
1x
15
14
#644800
0!
03
0,
#669600
1!
13
1,
1w
0x
07
06
05
04
19
18
17
16
0;
0:
09
08
1;
1:
#694400
0!
03
0,
#719200
1!
13
1,
1x
15
14
07
06
19
18
0;
0:
#744000
0!
03
0,
#768800
1!
13
1,
1t
0u
0v
0w
0x
1<
1;
1:
09
08
17
16
05
04
0<
#793600
0!
03
0,
#818400
1!
13
1,
1x
15
14
#843200
0!
03
0,
#868000
1!
13
1,
1w
0x
07
06
05
04
17
16
#892800
0!
03
0,
#917600
1!
13
1,
1x
15
14
07
06
#942400
0!
03
0,
#967200
1!
13
1,
1v
0w
0x
19
18
17
16
05
04
09
08
#992000
0!
03
0,
#1016800
1!
13
1,
1x
15
14
#1041600
0!
03
0,
#1066400
1!
13
1,
1w
0x
07
06
05
04
19
18
17
16
09
08
#1091200
0!
03
0,
#1116000
1!
13
1,
1x
15
14
07
06
19
18
#1140800
0!
03
0,
#1165600
1!
13
1,
1u
0v
0w
0x
0;
0:
09
08
17
16
05
04
1<
1;
1:
0<
#1190400
0!
03
0,
#1215200
1!
13
1,
1x
15
14
#1240000
0!
03
0,
#1264800
1!
13
1,
1w
0x
07
06
05
04
17
16
#1289600
0!
03
0,
#1314400
1!
13
1,
1x
15
14
07
06
#1339200
0!
03
0,
#1364000
1!
13
1,
1v
0w
0x
19
18
17
16
05
04
0;
0:
09
08
1<
1;
1:
0<
#1388800
0!
03
0,
#1413600
1!
13
1,
1x
15
14
#1438400
0!
03
0,
#1463200
1!
13
1,
1w
0x
07
06
05
04
19
18
17
16
0;
0:
09
08
1<
1;
1:
0<
#1488000
0!
03
0,
#1512800
1!
13
1,
1x
15
14
07
06
19
18
0;
0:
1<
#1537600
0!
03
0,
#1562400
1!
13
1,
1s
0t
0u
0v
0w
0x
0>
0<
1;
1:
09
08
17
16
05
04
#1587200
0!
03
0,
#1612000
1!
13
1,
1x
15
14
#1636800
0!
03
0,
#1661600
1!
13
1,
1w
0x
07
06
05
04
17
16
#1686400
0!
03
0,
#1711200
1!
13
1,
1x
15
14
07
06
#1736000
0!
03
0,
#1760800
1!
13
1,
1v
0w
0x
19
18
17
16
05
04
09
08
#1785600
0!
03
0,
#1810400
1!
13
1,
1x
15
14
#1835200
0!
03
0,
#1860000
1!
13
1,
1w
0x
07
06
05
04
19
18
17
16
09
08
#1884800
0!
03
0,
#1909600
1!
13
1,
1x
15
14
07
06
19
18
#1934400
0!
03
0,
#1959200
1!
13
1,
1u
0v
0w
0x
0;
0:
09
08
17
16
05
04
1;
1:
#1984000
0!
03
0,
#2008800
1!
13
1,
1x
15
14
#2033600
0!
03
0,
#2058400
1!
13
1,
1w
0x
07
06
05
04
17
16
#2083200
0!
03
0,
#2108000
1!
13
1,
1x
15
14
07
06
#2132800
0!
03
0,
#2157600
1!
13
1,
1v
0w
0x
19
18
17
16
05
04
0;
0:
09
08
1;
1:
#2182400
0!
03
0,
#2207200
1!
13
1,
1x
15
14
#2232000
0!
03
0,
#2256800
1!
13
1,
1w
0x
07
06
05
04
19
18
17
16
0;
0:
09
08
1;
1:
#2281600
0!
03
0,
#2306400
1!
13
1,
1x
15
14
07
06
19
18
0;
0:
#2331200
0!
03
0,
#2356000
1!
13
1,
1t
0u
0v
0w
0x
1<
1;
1:
09
08
17
16
05
04
0<
#2380800
0!
03
0,
#2405600
1!
13
1,
1x
15
14
#2430400
0!
03
0,
#2455200
1!
13
1,
1w
0x
07
06
05
04
17
16
#2480000
0!
03
0,
#2504800
1!
13
1,
1x
15
14
07
06
#2529600
0!
03
0,
#2554400
1!
13
1,
1v
0w
0x
19
18
17
16
05
04
09
08
#2579200
0!
03
0,
#2604000
1!
13
1,
1x
15
14
#2628800
0!
03
0,
#2653600
1!
13
1,
1w
0x
07
06
05
04
19
18
17
16
09
08
#2678400
0!
03
0,
#2703200
1!
13
1,
1x
15
14
07
06
19
18
#2728000
0!
03
0,
#2752800
1!
13
1,
1u
0v
0w
0x
0;
0:
09
08
17
16
05
04
1<
1;
1:
0<
#2777600
0!
03
0,
#2802400
1!
13
1,
1x
15
14
#2827200
0!
03
0,
#2852000
1!
13
1,
1w
0x
07
06
05
04
17
16
#2876800
0!
03
0,
#2901600
1!
13
1,
1x
15
14
07
06
#2926400
0!
03
0,
#2951200
1!
13
1,
1v
0w
0x
19
18
17
16
05
04
0;
0:
09
08
1<
1;
1:
0<
#2976000
0!
03
0,
#3000800
1!
13
1,
1x
15
14
#3025600
0!
03
0,
#3050400
1!
13
1,
1w
0x
07
06
05
04
19
18
17
16
0;
0:
09
08
1<
1;
1:
0<
#3075200
0!
03
0,
#3100000
1!
13
1,
1x
15
14
07
06
19
18
0;
0:
1<
#3124800
0!
03
0,
#3149600
1!
13
1,
1r
0s
0t
0u
0v
0w
0x
1@
1>
0<
1;
1:
09
08
17
16
05
04
0@
#3174400
0!
03
0,
#3199200
1!
13
1,
1x
15
14
#3224000
0!
03
0,
#3248800
1!
13
1,
1w
0x
07
06
05
04
17
16
#3273600
0!
03
0,
#3298400
1!
13
1,
1x
15
14
07
06
#3323200
0!
03
0,
#3348000
1!
13
1,
1v
0w
0x
19
18
17
16
05
04
09
08
#3372800
0!
03
0,
#3397600
1!
13
1,
1x
15
14
#3422400
0!
03
0,
#3447200
1!
13
1,
1w
0x
07
06
05
04
19
18
17
16
09
08
#3472000
0!
03
0,
#3496800
1!
13
1,
1x
15
14
07
06
19
18
#3521600
0!
03
0,
#3546400
1!
13
1,
1u
0v
0w
0x
0;
0:
09
08
17
16
05
04
1;
1:
#3571200
0!
03
0,
#3596000
1!
13
1,
1x
15
14
#3620800
0!
03
0,
#3645600
1!
13
1,
1w
0x
07
06
05
04
17
16
#3670400
0!
03
0,
#3695200
1!
13
1,
1x
15
14
07
06
#3720000
0!
03
0,
#3744800
1!
13
1,
1v
0w
0x
19
18
17
16
05
04
0;
0:
09
08
1;
1:
#3769600
0!
03
0,
#3794400
1!
13
1,
1x
15
14
#3819200
0!
03
0,
#3844000
1!
13
1,
1w
0x
07
06
05
04
19
18
17
16
0;
0:
09
08
1;
1:
#3868800
0!
03
0,
#3893600
1!
13
1,
1x
15
14
07
06
19
18
0;
0:
#3918400
0!
03
0,
#3943200
1!
13
1,
1t
0u
0v
0w
0x
1<
1;
1:
09
08
17
16
05
04
0<
#3968000
0!
03
0,
#3992800
1!
13
1,
1x
15
14
#4017600
0!
03
0,
#4042400
1!
13
1,
1w
0x
07
06
05
04
17
16
#4067200
0!
03
0,
#4092000
1!
13
1,
1x
15
14
07
06
#4116800
0!
03
0,
#4141600
1!
13
1,
1v
0w
0x
19
18
17
16
05
04
09
08
#4166400
0!
03
0,
#4191200
1!
13
1,
1x
15
14
#4216000
0!
03
0,
#4240800
1!
13
1,
1w
0x
07
06
05
04
19
18
17
16
09
08
#4265600
0!
03
0,
#4290400
1!
13
1,
1x
15
14
07
06
19
18
#4315200
0!
03
0,
#4340000
1!
13
1,
1u
0v
0w
0x
0;
0:
09
08
17
16
05
04
1<
1;
1:
0<
#4364800
0!
03
0,
#4389600
1!
13
1,
1x
15
14
#4414400
0!
03
0,
#4439200
1!
13
1,
1w
0x
07
06
05
04
17
16
#4464000
0!
03
0,
#4488800
1!
13
1,
1x
15
14
07
06
#4513600
0!
03
0,
#4538400
1!
13
1,
1v
0w
0x
19
18
17
16
05
04
0;
0:
09
08
1<
1;
1:
0<
#4563200
0!
03
0,
#4588000
1!
13
1,
1x
15
14
#4612800
0!
03
0,
#4637600
1!
13
1,
1w
0x
07
06
05
04
19
18
17
16
0;
0:
09
08
1<
1;
1:
0<
#4662400
0!
03
0,
#4687200
1!
13
1,
1x
15
14
07
06
19
18
0;
0:
1<
#4712000
0!
03
0,
#4736800
1!
13
1,
1s
0t
0u
0v
0w
0x
0>
0<
1;
1:
09
08
17
16
05
04
1@
#4761600
0!
03
0,
#4786400
1!
13
1,
1x
15
14
#4811200
0!
03
0,
#4836000
1!
13
1,
1w
0x
07
06
05
04
17
16
#4860800
0!
03
0,
#4885600
1!
13
1,
1x
15
14
07
06
#4910400
0!
03
0,
#4935200
1!
13
1,
1v
0w
0x
19
18
17
16
05
04
09
08
#4960000
0!
03
0,
#4984800
1!
13
1,
1x
15
14
#5009600
0!
03
0,
#5034400
1!
13
1,
1w
0x
07
06
05
04
19
18
17
16
09
08
#5059200
0!
03
0,
#5084000
1!
13
1,
1x
15
14
07
06
19
18
#5108800
0!
03
0,
#5133600
1!
13
1,
1u
0v
0w
0x
0;
0:
09
08
17
16
05
04
1;
1:
#5158400
0!
03
0,
#5183200
1!
13
1,
1x
15
14
#5208000
0!
03
0,
#5232800
1!
13
1,
1w
0x
07
06
05
04
17
16
#5257600
0!
03
0,
#5282400
1!
13
1,
1x
15
14
07
06
#5307200
0!
03
0,
#5332000
1!
13
1,
1v
0w
0x
19
18
17
16
05
04
0;
0:
09
08
1;
1:
#5356800
0!
03
0,
#5381600
1!
13
1,
1x
15
14
#5406400
0!
03
0,
#5431200
1!
13
1,
1w
0x
07
06
05
04
19
18
17
16
0;
0:
09
08
1;
1:
#5456000
0!
03
0,
#5480800
1!
13
1,
1x
15
14
07
06
19
18
0;
0:
#5505600
0!
03
0,
#5530400
1!
13
1,
1t
0u
0v
0w
0x
1<
1;
1:
09
08
17
16
05
04
0<
#5555200
0!
03
0,
#5580000
1!
13
1,
1x
15
14
#5604800
0!
03
0,
#5629600
1!
13
1,
1w
0x
07
06
05
04
17
16
#5654400
0!
03
0,
#5679200
1!
13
1,
1x
15
14
07
06
#5704000
0!
03
0,
#5728800
1!
13
1,
1v
0w
0x
19
18
17
16
05
04
09
08
#5753600
0!
03
0,
#5778400
1!
13
1,
1x
15
14
#5803200
0!
03
0,
#5828000
1!
13
1,
1w
0x
07
06
05
04
19
18
17
16
09
08
#5852800
0!
03
0,
#5877600
1!
13
1,
1x
15
14
07
06
19
18
#5902400
0!
03
0,
#5927200
1!
13
1,
1u
0v
0w
0x
0;
0:
09
08
17
16
05
04
1<
1;
1:
0<
#5952000
0!
03
0,
#5976800
1!
13
1,
1x
15
14
#6001600
0!
03
0,
#6026400
1!
13
1,
1w
0x
07
06
05
04
17
16
#6051200
0!
03
0,
#6076000
1!
13
1,
1x
15
14
07
06
#6100800
0!
03
0,
#6125600
1!
13
1,
1v
0w
0x
19
18
17
16
05
04
0;
0:
09
08
1<
1;
1:
0<
#6150400
0!
03
0,
#6175200
1!
13
1,
1x
15
14
#6200000
0!
03
0,
#6224800
1!
13
1,
1w
0x
07
06
05
04
19
18
17
16
0;
0:
09
08
1<
1;
1:
0<
#6249600
0!
03
0,
#6274400
1!
13
1,
1x
15
14
07
06
19
18
0;
0:
1<
#6299200
0!
03
0,
#6324000
1!
13
1,
1q
0r
0s
0t
0u
0v
0w
0x
0@
1>
0<
1;
1:
09
08
17
16
05
04
1p
1B
1A
#6348800
0!
03
0,
#6373600
1!
13
1,
1x
15
14
#6398400
0!
03
0,
#6423200
1!
13
1,
1w
0x
07
06
05
04
17
16
#6448000
0!
03
0,
#6472800
1!
13
1,
1x
15
14
07
06
#6497600
0!
03
0,
#6522400
1!
13
1,
1v
0w
0x
19
18
17
16
05
04
09
08
#6547200
0!
03
0,
#6572000
1!
13
1,
1x
15
14
#6596800
0!
03
0,
#6621600
1!
13
1,
1w
0x
07
06
05
04
19
18
17
16
09
08
#6646400
0!
03
0,
#6671200
1!
13
1,
1x
15
14
07
06
19
18
#6696000
0!
03
0,
#6720800
1!
13
1,
1u
0v
0w
0x
0;
0:
09
08
17
16
05
04
1;
1:
#6745600
0!
03
0,
#6770400
1!
13
1,
1x
15
14
#6795200
0!
03
0,
#6820000
1!
13
1,
1w
0x
07
06
05
04
17
16
#6844800
0!
03
0,
#6869600
1!
13
1,
1x
15
14
07
06
#6894400
0!
03
0,
#6919200
1!
13
1,
1v
0w
0x
19
18
17
16
05
04
0;
0:
09
08
1;
1:
#6944000
0!
03
0,
#6968800
1!
13
1,
1x
15
14
#6993600
0!
03
0,
#7018400
1!
13
1,
1w
0x
07
06
05
04
19
18
17
16
0;
0:
09
08
1;
1:
#7043200
0!
03
0,
#7068000
1!
13
1,
1x
15
14
07
06
19
18
0;
0:
#7092800
0!
03
0,
#7117600
1!
13
1,
1t
0u
0v
0w
0x
1<
1;
1:
09
08
17
16
05
04
0<
#7142400
0!
03
0,
#7167200
1!
13
1,
1x
15
14
#7192000
0!
03
0,
#7216800
1!
13
1,
1w
0x
07
06
05
04
17
16
#7241600
0!
03
0,
#7266400
1!
13
1,
1x
15
14
07
06
#7291200
0!
03
0,
#7316000
1!
13
1,
1v
0w
0x
19
18
17
16
05
04
09
08
#7340800
0!
03
0,
#7365600
1!
13
1,
1x
15
14
#7390400
0!
03
0,
#7415200
1!
13
1,
1w
0x
07
06
05
04
19
18
17
16
09
08
#7440000
0!
03
0,
#7464800
1!
13
1,
1x
15
14
07
06
19
18
#7489600
0!
03
0,
#7514400
1!
13
1,
1u
0v
0w
0x
0;
0:
09
08
17
16
05
04
1<
1;
1:
0<
#7539200
0!
03
0,
#7564000
1!
13
1,
1x
15
14
#7588800
0!
03
0,
#7613600
1!
13
1,
1w
0x
07
06
05
04
17
16
#7638400
0!
03
0,
#7663200
1!
13
1,
1x
15
14
07
06
#7688000
0!
03
0,
#7712800
1!
13
1,
1v
0w
0x
19
18
17
16
05
04
0;
0:
09
08
1<
1;
1:
0<
#7737600
0!
03
0,
#7762400
1!
13
1,
1x
15
14
#7787200
0!
03
0,
#7812000
1!
13
1,
1w
0x
07
06
05
04
19
18
17
16
0;
0:
09
08
1<
1;
1:
0<
#7836800
0!
03
0,
#7861600
1!
13
1,
1x
15
14
07
06
19
18
0;
0:
1<
#7886400
0!
03
0,
#7911200
1!
13
1,
1s
0t
0u
0v
0w
0x
0>
0<
1;
1:
09
08
17
16
05
04
#7936000
0!
03
0,
#7960800
1!
13
1,
1x
15
14
#7985600
0!
03
0,
#8010400
1!
13
1,
1w
0x
07
06
05
04
17
16
#8035200
0!
03
0,
#8060000
1!
13
1,
1x
15
14
07
06
#8084800
0!
03
0,
#8109600
1!
13
1,
1v
0w
0x
19
18
17
16
05
04
09
08
#8134400
0!
03
0,
#8159200
1!
13
1,
1x
15
14
#8184000
0!
03
0,
#8208800
1!
13
1,
1w
0x
07
06
05
04
19
18
17
16
09
08
#8233600
0!
03
0,
#8258400
1!
13
1,
1x
15
14
07
06
19
18
#8283200
0!
03
0,
#8308000
1!
13
1,
1u
0v
0w
0x
0;
0:
09
08
17
16
05
04
1;
1:
#8332800
0!
03
0,
#8357600
1!
13
1,
1x
15
14
#8382400
0!
03
0,
#8407200
1!
13
1,
1w
0x
07
06
05
04
17
16
#8432000
0!
03
0,
#8456800
1!
13
1,
1x
15
14
07
06
#8481600
0!
03
0,
#8506400
1!
13
1,
1v
0w
0x
19
18
17
16
05
04
0;
0:
09
08
1;
1:
#8531200
0!
03
0,
#8556000
1!
13
1,
1x
15
14
#8580800
0!
03
0,
#8605600
1!
13
1,
1w
0x
07
06
05
04
19
18
17
16
0;
0:
09
08
1;
1:
#8630400
0!
03
0,
#8655200
1!
13
1,
1x
15
14
07
06
19
18
0;
0:
#8680000
0!
03
0,
#8704800
1!
13
1,
1t
0u
0v
0w
0x
1<
1;
1:
09
08
17
16
05
04
0<
#8729600
0!
03
0,
#8754400
1!
13
1,
1x
15
14
#8779200
0!
03
0,
#8804000
1!
13
1,
1w
0x
07
06
05
04
17
16
#8828800
0!
03
0,
#8853600
1!
13
1,
1x
15
14
07
06
#8878400
0!
03
0,
#8903200
1!
13
1,
1v
0w
0x
19
18
17
16
05
04
09
08
#8928000
0!
03
0,
#8952800
1!
13
1,
1x
15
14
#8977600
0!
03
0,
#9002400
1!
13
1,
1w
0x
07
06
05
04
19
18
17
16
09
08
#9027200
0!
03
0,
#9052000
1!
13
1,
1x
15
14
07
06
19
18
#9076800
0!
03
0,
#9101600
1!
13
1,
1u
0v
0w
0x
0;
0:
09
08
17
16
05
04
1<
1;
1:
0<
#9126400
0!
03
0,
#9151200
1!
13
1,
1x
15
14
#9176000
0!
03
0,
#9200800
1!
13
1,
1w
0x
07
06
05
04
17
16
#9225600
0!
03
0,
#9250400
1!
13
1,
1x
15
14
07
06
#9275200
0!
03
0,
#9300000
1!
13
1,
1v
0w
0x
19
18
17
16
05
04
0;
0:
09
08
1<
1;
1:
0<
#9324800
0!
03
0,
#9349600
1!
13
1,
1x
15
14
#9374400
0!
03
0,
#9399200
1!
13
1,
1w
0x
07
06
05
04
19
18
17
16
0;
0:
09
08
1<
1;
1:
0<
#9424000
0!
03
0,
#9448800
1!
13
1,
1x
15
14
07
06
19
18
0;
0:
1<
#9473600
0!
03
0,
#9498400
1!
13
1,
1r
0s
0t
0u
0v
0w
0x
1@
1>
0<
1;
1:
09
08
17
16
05
04
0@
#9523200
0!
03
0,
#9548000
1!
13
1,
1x
15
14
#9572800
0!
03
0,
#9597600
1!
13
1,
1w
0x
07
06
05
04
17
16
#9622400
0!
03
0,
#9647200
1!
13
1,
1x
15
14
07
06
#9672000
0!
03
0,
#9696800
1!
13
1,
1v
0w
0x
19
18
17
16
05
04
09
08
#9721600
0!
03
0,
#9746400
1!
13
1,
1x
15
14
#9771200
0!
03
0,
#9796000
1!
13
1,
1w
0x
07
06
05
04
19
18
17
16
09
08
#9820800
0!
03
0,
#9845600
1!
13
1,
1x
15
14
07
06
19
18
#9870400
0!
03
0,
#9895200
1!
13
1,
1u
0v
0w
0x
0;
0:
09
08
17
16
05
04
1;
1:
#9920000
0!
03
0,
#9944800
1!
13
1,
1x
15
14
#9969600
0!
03
0,
#9994400
1!
13
1,
1w
0x
07
06
05
04
17
16
